<svg
 xmlns="http://www.w3.org/2000/svg"
 viewBox="0 0 31 31">
<path d="M8.207,19.534 C8.379,19.534 8.543,19.568 8.698,19.637 C8.854,19.706 8.983,19.792 9.086,19.896 C9.190,19.999 9.275,20.128 9.345,20.283 C9.414,20.439 9.448,20.603 9.448,20.775 L9.448,22.637 C9.448,22.810 9.414,22.973 9.345,23.128 C9.275,23.283 9.190,23.421 9.086,23.542 C8.983,23.663 8.854,23.757 8.698,23.826 C8.543,23.896 8.379,23.930 8.207,23.930 L6.345,23.930 C6.172,23.930 6.009,23.896 5.854,23.826 C5.699,23.757 5.561,23.663 5.440,23.542 C5.319,23.421 5.233,23.283 5.182,23.128 C5.130,22.973 5.104,22.810 5.104,22.637 L5.104,20.775 C5.104,20.603 5.130,20.439 5.182,20.283 C5.233,20.128 5.319,19.999 5.440,19.896 C5.561,19.792 5.699,19.706 5.854,19.637 C6.009,19.568 6.172,19.534 6.345,19.534 L8.207,19.534 L8.207,19.534 ZM13.689,19.534 C13.861,19.534 14.025,19.568 14.180,19.637 C14.336,19.706 14.465,19.792 14.568,19.896 C14.672,19.999 14.757,20.128 14.827,20.283 C14.896,20.439 14.930,20.603 14.930,20.775 L14.930,22.637 C14.930,22.810 14.896,22.973 14.827,23.128 C14.757,23.283 14.672,23.421 14.568,23.542 C14.465,23.663 14.336,23.757 14.180,23.826 C14.025,23.896 13.861,23.930 13.689,23.930 L11.827,23.930 C11.654,23.930 11.491,23.896 11.336,23.826 C11.181,23.757 11.043,23.663 10.922,23.542 C10.801,23.421 10.707,23.283 10.638,23.128 C10.568,22.973 10.534,22.810 10.534,22.637 L10.534,20.775 C10.534,20.603 10.568,20.439 10.638,20.283 C10.707,20.128 10.801,19.999 10.922,19.896 C11.043,19.792 11.181,19.706 11.336,19.637 C11.491,19.568 11.654,19.534 11.827,19.534 L13.689,19.534 L13.689,19.534 ZM13.689,14.052 C13.861,14.052 14.025,14.086 14.180,14.155 C14.336,14.224 14.465,14.319 14.568,14.439 C14.672,14.561 14.757,14.690 14.827,14.827 C14.896,14.965 14.930,15.138 14.930,15.344 L14.930,17.206 C14.930,17.379 14.896,17.534 14.827,17.672 C14.757,17.810 14.672,17.939 14.568,18.060 C14.465,18.181 14.336,18.275 14.180,18.344 C14.025,18.414 13.861,18.447 13.689,18.447 L11.827,18.447 C11.654,18.447 11.491,18.414 11.336,18.344 C11.181,18.275 11.043,18.181 10.922,18.060 C10.801,17.939 10.707,17.810 10.638,17.672 C10.568,17.534 10.534,17.379 10.534,17.206 L10.534,15.344 C10.534,15.138 10.568,14.965 10.638,14.827 C10.707,14.690 10.801,14.561 10.922,14.439 C11.043,14.319 11.181,14.224 11.336,14.155 C11.491,14.086 11.654,14.052 11.827,14.052 L13.689,14.052 L13.689,14.052 ZM19.119,14.052 C19.326,14.052 19.498,14.086 19.637,14.155 C19.774,14.224 19.903,14.319 20.025,14.439 C20.145,14.561 20.239,14.690 20.309,14.827 C20.378,14.965 20.412,15.138 20.412,15.344 L20.412,17.206 C20.412,17.379 20.378,17.534 20.309,17.672 C20.239,17.810 20.145,17.939 20.025,18.060 C19.903,18.181 19.774,18.275 19.637,18.344 C19.498,18.414 19.326,18.447 19.119,18.447 L17.258,18.447 C17.085,18.447 16.930,18.414 16.792,18.344 C16.654,18.275 16.525,18.181 16.404,18.060 C16.283,17.939 16.189,17.810 16.120,17.672 C16.050,17.534 16.016,17.379 16.016,17.206 L16.016,15.344 C16.016,15.138 16.050,14.965 16.120,14.827 C16.189,14.690 16.283,14.561 16.404,14.439 C16.525,14.319 16.654,14.224 16.792,14.155 C16.930,14.086 17.085,14.052 17.258,14.052 L19.119,14.052 L19.119,14.052 ZM19.119,19.534 C19.326,19.534 19.498,19.568 19.637,19.637 C19.774,19.706 19.903,19.792 20.025,19.896 C20.145,19.999 20.239,20.128 20.309,20.283 C20.378,20.439 20.412,20.603 20.412,20.775 L20.412,22.637 C20.412,22.810 20.378,22.973 20.309,23.128 C20.239,23.283 20.145,23.421 20.025,23.542 C19.903,23.663 19.774,23.757 19.637,23.826 C19.498,23.896 19.326,23.930 19.119,23.930 L17.258,23.930 C17.085,23.930 16.930,23.896 16.792,23.826 C16.654,23.757 16.525,23.663 16.404,23.542 C16.283,23.421 16.189,23.283 16.120,23.128 C16.050,22.973 16.016,22.810 16.016,22.637 L16.016,20.775 C16.016,20.603 16.050,20.439 16.120,20.283 C16.189,20.128 16.283,19.999 16.404,19.896 C16.525,19.792 16.654,19.706 16.792,19.637 C16.930,19.568 17.085,19.534 17.258,19.534 L19.119,19.534 L19.119,19.534 ZM24.602,19.534 C24.774,19.534 24.938,19.568 25.093,19.637 C25.248,19.706 25.385,19.792 25.507,19.896 C25.627,19.999 25.722,20.128 25.791,20.283 C25.860,20.439 25.894,20.603 25.894,20.775 L25.894,22.637 C25.894,22.810 25.860,22.973 25.791,23.128 C25.722,23.283 25.627,23.421 25.507,23.542 C25.385,23.663 25.248,23.757 25.093,23.826 C24.938,23.896 24.774,23.930 24.602,23.930 L22.740,23.930 C22.567,23.930 22.404,23.896 22.248,23.826 C22.093,23.757 21.964,23.663 21.860,23.542 C21.757,23.421 21.671,23.283 21.602,23.128 C21.532,22.973 21.498,22.810 21.498,22.637 L21.498,20.775 C21.498,20.603 21.532,20.439 21.602,20.283 C21.671,20.128 21.757,19.999 21.860,19.896 C21.964,19.792 22.093,19.706 22.248,19.637 C22.404,19.568 22.567,19.534 22.740,19.534 L24.602,19.534 L24.602,19.534 ZM24.602,14.052 C24.774,14.052 24.938,14.086 25.093,14.155 C25.248,14.224 25.385,14.319 25.507,14.439 C25.627,14.561 25.722,14.690 25.791,14.827 C25.860,14.965 25.894,15.138 25.894,15.344 L25.894,17.206 C25.894,17.379 25.860,17.534 25.791,17.672 C25.722,17.810 25.627,17.939 25.507,18.060 C25.385,18.181 25.248,18.275 25.093,18.344 C24.938,18.414 24.774,18.447 24.602,18.447 L22.740,18.447 C22.567,18.447 22.404,18.414 22.248,18.344 C22.093,18.275 21.964,18.181 21.860,18.060 C21.757,17.939 21.671,17.810 21.602,17.672 C21.532,17.534 21.498,17.379 21.498,17.206 L21.498,15.344 C21.498,15.138 21.532,14.965 21.602,14.827 C21.671,14.690 21.757,14.561 21.860,14.439 C21.964,14.319 22.093,14.224 22.248,14.155 C22.404,14.086 22.567,14.052 22.740,14.052 L24.602,14.052 L24.602,14.052 ZM28.635,2.932 C28.946,2.932 29.221,2.993 29.463,3.113 C29.704,3.235 29.928,3.390 30.135,3.579 C30.342,3.769 30.497,3.992 30.601,4.251 C30.704,4.510 30.756,4.777 30.756,5.053 L30.756,28.481 C30.756,28.791 30.704,29.075 30.601,29.334 C30.497,29.593 30.342,29.817 30.135,30.006 C29.928,30.196 29.696,30.342 29.437,30.446 C29.179,30.549 28.911,30.601 28.635,30.601 L2.363,30.601 C2.053,30.601 1.776,30.549 1.536,30.446 C1.294,30.342 1.070,30.196 0.863,30.006 C0.656,29.817 0.501,29.593 0.398,29.334 C0.294,29.075 0.243,28.791 0.243,28.481 L0.243,5.053 C0.243,4.777 0.294,4.510 0.398,4.251 C0.501,3.992 0.656,3.769 0.863,3.579 C1.070,3.390 1.294,3.235 1.536,3.113 C1.776,2.993 2.053,2.932 2.363,2.932 L3.863,2.932 C3.966,2.932 4.078,2.958 4.199,3.010 C4.319,3.062 4.423,3.131 4.509,3.217 C4.595,3.303 4.664,3.407 4.716,3.527 C4.768,3.648 4.794,3.760 4.794,3.863 L4.794,6.087 C4.794,6.501 4.871,6.889 5.026,7.251 C5.182,7.613 5.389,7.923 5.647,8.182 C5.906,8.440 6.216,8.647 6.578,8.802 C6.940,8.957 7.328,9.035 7.742,9.035 C8.155,9.035 8.543,8.957 8.905,8.802 C9.267,8.647 9.578,8.440 9.836,8.182 C10.095,7.923 10.302,7.613 10.457,7.251 C10.612,6.889 10.690,6.501 10.690,6.087 L10.690,3.863 C10.690,3.760 10.715,3.648 10.767,3.527 C10.819,3.407 10.888,3.303 10.974,3.217 C11.060,3.131 11.163,3.062 11.284,3.010 C11.405,2.958 11.534,2.932 11.672,2.932 L19.481,2.932 C19.619,2.932 19.748,2.958 19.869,3.010 C19.990,3.062 20.084,3.131 20.154,3.217 C20.223,3.303 20.283,3.407 20.335,3.527 C20.387,3.648 20.412,3.760 20.412,3.863 L20.412,6.087 C20.412,6.501 20.490,6.889 20.645,7.251 C20.800,7.613 21.015,7.923 21.292,8.182 C21.567,8.440 21.886,8.647 22.248,8.802 C22.610,8.957 22.998,9.035 23.412,9.035 C23.791,9.035 24.162,8.957 24.524,8.802 C24.886,8.647 25.204,8.440 25.481,8.182 C25.756,7.923 25.972,7.613 26.127,7.251 C26.282,6.889 26.360,6.501 26.360,6.087 L26.360,3.863 C26.360,3.760 26.386,3.648 26.437,3.527 C26.489,3.407 26.558,3.303 26.644,3.217 C26.730,3.131 26.825,3.062 26.929,3.010 C27.032,2.958 27.153,2.932 27.291,2.932 L28.635,2.932 L28.635,2.932 ZM27.911,26.826 L27.911,26.774 L27.911,11.466 L27.911,11.414 L27.911,11.362 C27.911,11.225 27.886,11.104 27.834,11.000 C27.782,10.897 27.713,10.802 27.627,10.716 C27.541,10.630 27.446,10.569 27.343,10.535 C27.239,10.501 27.118,10.483 26.981,10.483 L4.018,10.483 C3.880,10.483 3.759,10.501 3.656,10.535 C3.553,10.569 3.457,10.630 3.372,10.716 C3.285,10.802 3.216,10.897 3.165,11.000 C3.113,11.104 3.087,11.225 3.087,11.362 L3.087,11.414 L3.087,11.466 L3.087,26.774 L3.087,26.826 L3.087,26.877 C3.087,27.016 3.113,27.136 3.165,27.239 C3.216,27.343 3.276,27.438 3.346,27.524 C3.414,27.610 3.501,27.671 3.604,27.705 C3.708,27.740 3.828,27.757 3.966,27.757 L3.966,27.808 L4.018,27.808 C4.052,27.808 4.070,27.791 4.070,27.757 L26.929,27.757 C26.929,27.791 26.946,27.808 26.981,27.808 L27.032,27.808 L27.032,27.757 C27.170,27.757 27.291,27.740 27.394,27.705 C27.498,27.671 27.583,27.610 27.653,27.524 C27.722,27.438 27.782,27.343 27.834,27.239 C27.886,27.136 27.911,27.016 27.911,26.877 L27.911,26.826 L27.911,26.826 L27.911,26.826 L27.911,26.826 L27.911,26.826 L27.911,26.826 L27.911,26.826 L27.911,26.826 L27.911,26.826 L27.911,26.826 L27.911,26.826 L27.911,26.826 L27.911,26.826 L27.911,26.826 L27.911,26.826 L27.911,26.826 L27.911,26.826 L27.911,26.826 L27.911,26.826 L27.911,26.826 L27.911,26.826 L27.911,26.826 L27.911,26.826 L27.911,26.826 L27.911,26.826 L27.911,26.826 L27.911,26.826 L27.911,26.826 L27.911,26.826 L27.911,26.826 L27.911,26.826 L27.911,26.826 L27.911,26.826 L27.911,26.826 L27.911,26.826 L27.911,26.826 L27.911,26.826 L27.911,26.826 L27.911,26.826 L27.911,26.826 L27.911,26.826 L27.911,26.826 L27.911,26.826 L27.911,26.826 L27.911,26.826 L27.911,26.826 ZM23.360,7.742 C23.153,7.742 22.964,7.699 22.791,7.613 C22.618,7.527 22.455,7.424 22.300,7.302 C22.145,7.182 22.024,7.036 21.938,6.863 C21.852,6.691 21.791,6.501 21.757,6.294 L21.757,2.208 C21.757,2.001 21.800,1.794 21.886,1.588 C21.972,1.381 22.093,1.209 22.248,1.070 C22.404,0.933 22.576,0.821 22.766,0.734 C22.955,0.649 23.170,0.605 23.412,0.605 C23.619,0.605 23.817,0.640 24.007,0.708 C24.196,0.778 24.360,0.881 24.498,1.019 C24.635,1.157 24.748,1.312 24.834,1.484 C24.920,1.657 24.981,1.829 25.015,2.001 L25.015,6.087 C25.015,6.329 24.972,6.544 24.886,6.734 C24.799,6.923 24.679,7.096 24.524,7.251 C24.369,7.406 24.196,7.527 24.007,7.613 C23.817,7.699 23.601,7.742 23.360,7.742 L23.360,7.742 L23.360,7.742 L23.360,7.742 ZM7.742,7.742 C7.535,7.742 7.336,7.699 7.147,7.613 C6.957,7.527 6.793,7.424 6.656,7.302 C6.517,7.182 6.405,7.036 6.319,6.863 C6.233,6.691 6.172,6.501 6.138,6.294 L6.138,2.208 C6.138,2.001 6.181,1.794 6.268,1.588 C6.353,1.381 6.475,1.209 6.630,1.070 C6.785,0.933 6.957,0.821 7.147,0.734 C7.336,0.649 7.552,0.605 7.793,0.605 C8.000,0.605 8.189,0.640 8.362,0.708 C8.534,0.778 8.698,0.881 8.854,1.019 C9.009,1.157 9.129,1.312 9.216,1.484 C9.301,1.657 9.362,1.829 9.397,2.001 L9.397,6.087 C9.397,6.329 9.353,6.544 9.267,6.734 C9.181,6.923 9.060,7.096 8.905,7.251 C8.750,7.406 8.577,7.527 8.388,7.613 C8.198,7.699 7.982,7.742 7.742,7.742 L7.742,7.742 L7.742,7.742 L7.742,7.742 Z"/>
</svg>
