<svg
 xmlns="http://www.w3.org/2000/svg"
 viewBox="0 0 32 32">
<path d="M15.998,0.330 C18.789,0.330 21.372,1.028 23.747,2.424 C26.122,3.820 28.007,5.705 29.403,8.080 C30.799,10.455 31.497,13.038 31.497,15.829 C31.497,18.621 30.799,21.204 29.403,23.579 C28.007,25.953 26.122,27.839 23.747,29.234 C21.372,30.630 18.789,31.328 15.998,31.328 C13.207,31.328 10.623,30.630 8.249,29.234 C5.874,27.839 3.989,25.953 2.593,23.579 C1.197,21.204 0.499,18.621 0.499,15.829 C0.499,13.038 1.197,10.455 2.593,8.080 C3.989,5.705 5.874,3.820 8.249,2.424 C10.623,1.028 13.207,0.330 15.998,0.330 ZM15.998,6.330 C14.498,6.330 13.207,6.872 12.123,7.955 C11.040,9.038 10.498,10.330 10.498,11.830 C10.498,13.329 11.040,14.621 12.123,15.704 C13.207,16.787 14.498,17.329 15.998,17.329 C17.498,17.329 18.789,16.787 19.873,15.704 C20.956,14.621 21.497,13.329 21.497,11.830 C21.497,10.330 20.956,9.038 19.873,7.955 C18.789,6.872 17.498,6.330 15.998,6.330 ZM15.998,27.828 C17.789,27.828 19.487,27.453 21.091,26.703 C22.695,25.953 24.060,24.912 25.185,23.579 C24.560,22.454 23.706,21.547 22.622,20.860 C21.539,20.173 20.331,19.829 18.998,19.829 C18.873,19.829 18.727,19.850 18.560,19.891 C17.685,20.183 16.831,20.329 15.998,20.329 C15.165,20.329 14.311,20.183 13.436,19.891 C13.269,19.850 13.123,19.829 12.998,19.829 C11.665,19.829 10.457,20.173 9.374,20.860 C8.290,21.547 7.436,22.454 6.811,23.579 C7.936,24.912 9.301,25.953 10.905,26.703 C12.509,27.453 14.206,27.828 15.998,27.828 Z"/>
</svg>
